{
  "device_frame_version": "latest",
  "default": {
    "keyword": {
      "font": "./Fonts/PingFang.ttc"
    },
    "title": {
      "font": "./Fonts/PingFang.ttc",
      "color": "#545454"
    },
    "background": "./background.jpg",
    "padding": 50,
    "show_complete_frame": true,
    "stack_title" : false,
    "title_below_image": false
  },
  "data": [
    {
      "filter": "01",
      "title": {
        "text": " "
      },
      "keyword": {
        "color": "#d21559"
      }
    },
    {
      "filter": "02",
      "title": {
        "text": " "
      },
      "keyword": {
        "color": "#feb909"
      }
    },
    {
      "filter": "03",
      "title": {
        "text": " "
      },
      "keyword": {
        "color": "#aa4dbc"
      }
    },
    {
      "filter": "04",
      "title": {
        "text": " "
      },
      "keyword": {
        "color": "#31bb48"
      }
    }
  ]
}
